{
  "project_info": {
    "project_number": "916561322885",
    "firebase_url": "https://incidentiapes.firebaseio.com",
    "project_id": "incidentiapes",
    "storage_bucket": "incidentiapes.appspot.com"
  },
  "client": [
    {
      "client_info": {
        "mobilesdk_app_id": "1:916561322885:android:46d42fdcdde19fb0",
        "android_client_info": {
          "package_name": "worldsoftwaresolutions.incidentia"
        }
      },
      "oauth_client": [
        {
          "client_id": "916561322885-8hlq1uoo9udff1huv4r8ec34r4ck1ln0.apps.googleusercontent.com",
          "client_type": 1,
          "android_info": {
            "package_name": "worldsoftwaresolutions.incidentia",
            "certificate_hash": "15985bd8c70b2a3ad8089beb135e26b5573526c7"
          }
        },
        {
          "client_id": "916561322885-6tmavtgktus1agr2uli3hhnr6l1hjc7u.apps.googleusercontent.com",
          "client_type": 3
        }
      ],
      "api_key": [
        {
          "current_key": "AIzaSyA5wP7KXm6L3Yx1zF2MkV-QAtvxF-scOVg"
        }
      ],
      "services": {
        "analytics_service": {
          "status": 1
        },
        "appinvite_service": {
          "status": 2,
          "other_platform_oauth_client": [
            {
              "client_id": "916561322885-6tmavtgktus1agr2uli3hhnr6l1hjc7u.apps.googleusercontent.com",
              "client_type": 3
            }
          ]
        },
        "ads_service": {
          "status": 2
        }
      }
    }
  ],
  "configuration_version": "1"
}